Introduction to yersinia: Plague Transmission Modeling in R • yersinia
…
# View the structured results
results
#> Plague Model Results
#> ====================
#> Model type: stochastic_single 
#> Parameter set: 
#> Time points: 104 
#> Replicates: 100 
#> Populations: 1 
#> Compartments: S, I, R, N, F 
#> 
#> Data preview:
#> # A tibble: 52,000 × 5
#>    population compartment replicate   time value
#>  *      <int> <chr>           <int>  <dbl> <dbl>
#>  1          1 S                   1 0.0192  2500
#>  2          1 I                   1 0.0192     1
#>  3          1 R                   1 0.0192     0
#>  4          1 N                   1 0.0192     4
#>  5          1 F                   1 0.0192     0
#>  6          1 S                   2 0.0192  2500
#>  7          1 I                   2 0.0192     1
#>  8          1 R                   2 0.0192     0
#>  9          1 N                   2 0.0192     4
#> 10          1 F                   2 0.0192     0
#> # ℹ 51,990 more rows
…
